<svg xmlns="http://www.w3.org/2000/svg" xmlns:xlink="http://www.w3.org/1999/xlink" width="1044" height="541.98" viewBox="0 0 1044 541.98">
  <defs>
    <linearGradient id="linear-gradient" x1="0.5" x2="0.5" y2="1" gradientUnits="objectBoundingBox">
      <stop offset="0" stop-color="#0045bf"/>
      <stop offset="1" stop-color="#002360"/>
    </linearGradient>
    <filter id="Interseção_1" x="0" y="0" width="1044" height="541.98" filterUnits="userSpaceOnUse">
      <feOffset dy="3" input="SourceAlpha"/>
      <feGaussianBlur stdDeviation="7.5" result="blur"/>
      <feFlood flood-opacity="0.361"/>
      <feComposite operator="in" in2="blur"/>
      <feComposite in="SourceGraphic"/>
    </filter>
  </defs>
  <g transform="matrix(1, 0, 0, 1, 0, 0)" filter="url(#Interseção_1)">
    <path id="Interseção_1-2" data-name="Interseção 1" d="M-1785.505,451.212c-126.6-3.686-210.629,14.241-220.7,16.512V10.5h999V415.207c-31.826,20.665-145.737,88.743-269.914,92.076-4.953.133-10.009.2-15.139.2C-1438.86,507.483-1654.974,455.011-1785.505,451.212Z" transform="translate(2028.71 9)" fill="url(#linear-gradient)"/>
  </g>
</svg>
